%YAML 1.1
%TAG !u! tag:unity3d.com,2011:
--- !u!1045 &1
EditorBuildSettings:
  m_ObjectHideFlags: 0
  serializedVersion: 2
  m_Scenes:
  - enabled: 0
    path: Assets/SuriyunPrivate/Andalusia/Scenes/client.unity
    guid: 04f39c6cce703445a9069e448cc4e180
  - enabled: 0
    path: Assets/SuriyunPrivate/Andalusia/Scenes/server.unity
    guid: 105284c2612714fd4a23eb72670248bc
  - enabled: 0
    path: Assets/SuriyunPrivate/Andalusia/SceneMap/map01.unity
    guid: ee8184c8e3122f44eb7ceb94e012db06
  - enabled: 0
    path: Assets/SuriyunPrivate/Andalusia/SceneMap/map02.unity
    guid: 080479b67a7b91c4bb22752256e69886
  - enabled: 0
    path: Assets/SuriyunPrivate/Andalusia/SceneMap/map03.unity
    guid: 5d92b1349713389488ba5f75824b831b
  - enabled: 0
    path: Assets/SuriyunPrivate/Andalusia/SceneMap/map_ex.unity
    guid: c5351056a14a840bdb5eb2faad6ee263
  - enabled: 0
    path: Assets/SuriyunPrivate/MMOChatNetwork/Example/demo_chat_client.unity
    guid: 0107460331160374f85261cd6ddbcb37
  - enabled: 1
    path: Assets/Plugins/Suriyun/MobileControllerSystem/_Examples/Example.unity
    guid: ad89ed7238046420a81eed016b7c5469
  - enabled: 1
    path: Assets/Plugins/Suriyun/MobileControllerSystem/_Examples/Example2.unity
    guid: 88e7a1f35b22edf4b9efee4b416eb545
  - enabled: 1
    path: Assets/Plugins/Suriyun/MobileControllerSystem/_Examples/Example3.unity
    guid: 31e573b56de93404d9c20d0b938fa540
  - enabled: 1
    path: Assets/Plugins/Suriyun/MobileControllerSystem/_Examples/Example4.unity
    guid: d91a80bd62adf174a83c2789840a096f
  - enabled: 1
    path: Assets/Plugins/Suriyun/MobileControllerSystem/_Examples/Example5.unity
    guid: ad1c9838da91e3247aaaad78c62ff36c
  - enabled: 1
    path: Assets/Plugins/Suriyun/MobileControllerSystem/_Examples/Example6.unity
    guid: 92797d6cb0795410e98166a4da033a00
  - enabled: 1
    path: Assets/Plugins/Suriyun/MobileControllerSystem/_Examples/Example7.unity
    guid: f57650d93f326408293c139b402a62be
  - enabled: 0
    path: Assets/SuriyunPrivate/AutoTrader/Savior.unity
    guid: fd18be43926bb6e40a31e2cb67f9c689
  m_configObjects:
    com.unity.xr.management.loader_settings: {fileID: 11400000, guid: be38202a6bf249a4a909ad8aea6f9dde,
      type: 2}
